Requisiros pra Api

Atual -V php <=7.1.8
 
Composer

PHP 5.5.12 / * + 
php atual 7.1.8

mysql 5.6.17

"phpmailer/phpmailer": "~5.2" <= php 7.1.8
"phpmailer/phpmailer": "~6.0" => php 7.2.0

////////////////////////////////
Apache HTTP server 2.4.x / 2.4.9

modulos Ativos :

- rewrite_module

////////////////////////////////
